…
We are now ready to compute the scores:

``` r
scores <- score4cast::crps_logs_score(fc, target)
```

    Joining, by = c("site_id", "variable", "time")

``` r
scores |> filter(!is.na(crps))
```

    # A tibble: 6,487 × 13
       site_id time                variable  mean    sd observed   crps   logs
       <chr>   <dttm>              <chr>    <dbl> <dbl>    <dbl>  <dbl>  <dbl>
     1 ABBY    2022-04-20 03:00:00 RH        98.6 0.244     96.0  2.43  145.  
     2 ABBY    2022-04-20 09:00:00 RH        97.6 0.268     98.7  0.972   8.10
     3 ABBY    2022-04-20 15:00:00 RH        91.2 0.705     79.0 11.8   Inf   
     4 ABBY    2022-04-20 21:00:00 RH        86.6 4.95      87.3  1.26    2.71
     5 ABBY    2022-04-20 06:00:00 RH        98.4 0.446     97.4  0.754   2.24
     6 ABBY    2022-04-20 12:00:00 RH        96.4 0.367     99.9  3.28  100.  
     7 ABBY    2022-04-20 18:00:00 RH        83.7 4.92      92.7  6.27    3.82
     8 ABBY    2022-04-21 00:00:00 RH        94.2 2.06      82.6 10.5    26.3 
     9 ABBY    2022-04-20 09:00:00 RH        97.0 0.747     98.7  1.26    2.94
    10 ABBY    2022-04-20 12:00:00 RH        96.2 0.845     99.9  3.26   16.4 
    # … with 6,477 more rows, and 5 more variables: quantile02.5 <dbl>,
    #   quantile10 <dbl>, quantile90 <dbl>, quantile97.5 <dbl>, start_time <dttm>
…
